# Teams Points Value
Mercedes 156.0 27.1
Red_Bull 149.71 24.0
McLaren 142.5 22.8
Ferrari 140.57 22.6
Alpine 123.21 18.8
AlphaTauri 117.79 14.9
# Aston_Martin 112.21 14.6
Williams 101.0 12.8
Alfa_Romeo 102.86 10.1
Hass 79.43 6.0